{word=[every] neighbor=[thing]}	0.14754098360655737
{word=[every] neighbor=[body]}	0.07728337236533958
{word=[every] neighbor=[day]}	0.06713505074160812
{word=[every] neighbor=[other]}	0.03434816549570648
{word=[every] neighbor=[moment]}	0.02966432474629196
{word=[every] neighbor=[respect]}	0.02107728337236534
{word=[every] neighbor=[one]}	0.01639344262295082
{word=[every] neighbor=[morning]}	0.01092896174863388
{word=[every] neighbor=[bodys]}	0.01092896174863388
{word=[every] neighbor=[year]}	0.01014832162373146
